Caregivers and PTSD Project Notebook
…
# Fix names
replacements <- c("1" = "S", 
                  "2" = "A", 
                  "3" = "D",
                  "\\," = "_",
                  "\\[" = "_",
                  "\\]" = "")
names(draws) <- str_replace_all(names(draws), replacements)

# get rid of self-correlation = 1
draws <- draws %>% dplyr::select(-c(R_A_A, R_S_S, R_D_D))

draws

## # A tibble: 24,000 × 51
##     lp__ alpha_P gamma_V alpha_Y_S alpha_Y_A alpha_Y_D beta_V_S beta_V_A
##    <dbl>   <dbl>   <dbl>     <dbl>     <dbl>     <dbl>    <dbl>    <dbl>
##  1 -399. -0.0917   0.327    0.123     0.112     0.107    0.0894 -0.269  
##  2 -401. -0.360    0.530    0.249     0.0271    0.101    0.157   0.166  
##  3 -402. -0.178    0.242    0.0420   -0.195    -0.0131   0.0356  0.120  
##  4 -400. -0.218    0.733    0.0161    0.0219   -0.0718   0.0768  0.103  
##  5 -403. -0.447    0.818    0.183     0.0179    0.255    0.0269 -0.00857
##  6 -403. -0.130    0.609    0.119    -0.127    -0.160    0.105   0.156  
##  7 -406. -0.115    0.829    0.171    -0.0187    0.181    0.207   0.156  
##  8 -403. -0.132    0.274    0.0691   -0.206    -0.104    0.273   0.271  
##  9 -405. -0.0572   0.508   -0.0498    0.101    -0.0583   0.231   0.218  
## 10 -405. -0.0493   0.430   -0.0151    0.115    -0.0428   0.144   0.188  
## # ℹ 23,990 more rows
## # ℹ 43 more variables: beta_V_D <dbl>, beta_P_S <dbl>, beta_P_A <dbl>,
## #   beta_P_D <dbl>, sigma_S <dbl>, sigma_A <dbl>, sigma_D <dbl>,
## #   Lcorr_S_S <dbl>, Lcorr_A_S <dbl>, Lcorr_D_S <dbl>, Lcorr_S_A <dbl>,
## #   Lcorr_A_A <dbl>, Lcorr_D_A <dbl>, Lcorr_S_D <dbl>, Lcorr_A_D <dbl>,
## #   Lcorr_D_D <dbl>, L_Sigma_S_S <dbl>, L_Sigma_A_S <dbl>, L_Sigma_D_S <dbl>,
## #   L_Sigma_S_A <dbl>, L_Sigma_A_A <dbl>, L_Sigma_D_A <dbl>, …
…
